%!PS-Adobe-3.0
%%Creator: (MATLAB, The Mathworks, Inc. Version 9.4.0.813654 \(R2018a\). Operating System: Windows 10)
%%Title: ./pair_indexes.ps
%%CreationDate: 2019-05-17T10:57:58
%%Pages: (atend)
%%BoundingBox:   122   284   468   558
%%LanguageLevel: 3
%%EndComments
%%BeginDefaults
%%EndDefaults
%%BeginProlog
%%EndProlog
%%BeginSetup
%%BeginResource: procset (Apache XML Graphics Std ProcSet) 1.2 0
%%Version: 1.2 0
%%Copyright: (Copyright 2001-2003,2010 The Apache Software Foundation. License terms: http://www.apache.org/licenses/LICENSE-2.0)
/bd{bind def}bind def
/ld{load def}bd
/GR/grestore ld
/GS/gsave ld
/RM/rmoveto ld
/C/curveto ld
/t/show ld
/L/lineto ld
/ML/setmiterlimit ld
/CT/concat ld
/f/fill ld
/N/newpath ld
/S/stroke ld
/CC/setcmykcolor ld
/A/ashow ld
/cp/closepath ld
/RC/setrgbcolor ld
/LJ/setlinejoin ld
/GC/setgray ld
/LW/setlinewidth ld
/M/moveto ld
/re {4 2 roll M
1 index 0 rlineto
0 exch rlineto
neg 0 rlineto
cp } bd
/_ctm matrix def
/_tm matrix def
/BT { _ctm currentmatrix pop matrix _tm copy pop 0 0 moveto } bd
/ET { _ctm setmatrix } bd
/iTm { _ctm setmatrix _tm concat } bd
/Tm { _tm astore pop iTm 0 0 moveto } bd
/ux 0.0 def
/uy 0.0 def
/F {
  /Tp exch def
  /Tf exch def
  Tf findfont Tp scalefont setfont
  /cf Tf def  /cs Tp def
} bd
/ULS {currentpoint /uy exch def /ux exch def} bd
/ULE {
  /Tcx currentpoint pop def
  gsave
  newpath
  cf findfont cs scalefont dup
  /FontMatrix get 0 get /Ts exch def /FontInfo get dup
  /UnderlinePosition get Ts mul /To exch def
  /UnderlineThickness get Ts mul /Tt exch def
  ux uy To add moveto  Tcx uy To add lineto
  Tt setlinewidth stroke
  grestore
} bd
/OLE {
  /Tcx currentpoint pop def
  gsave
  newpath
  cf findfont cs scalefont dup
  /FontMatrix get 0 get /Ts exch def /FontInfo get dup
  /UnderlinePosition get Ts mul /To exch def
  /UnderlineThickness get Ts mul /Tt exch def
  ux uy To add cs add moveto Tcx uy To add cs add lineto
  Tt setlinewidth stroke
  grestore
} bd
/SOE {
  /Tcx currentpoint pop def
  gsave
  newpath
  cf findfont cs scalefont dup
  /FontMatrix get 0 get /Ts exch def /FontInfo get dup
  /UnderlinePosition get Ts mul /To exch def
  /UnderlineThickness get Ts mul /Tt exch def
  ux uy To add cs 10 mul 26 idiv add moveto Tcx uy To add cs 10 mul 26 idiv add lineto
  Tt setlinewidth stroke
  grestore
} bd
/QT {
/Y22 exch store
/X22 exch store
/Y21 exch store
/X21 exch store
currentpoint
/Y21 load 2 mul add 3 div exch
/X21 load 2 mul add 3 div exch
/X21 load 2 mul /X22 load add 3 div
/Y21 load 2 mul /Y22 load add 3 div
/X22 load /Y22 load curveto
} bd
/SSPD {
dup length /d exch dict def
{
/v exch def
/k exch def
currentpagedevice k known {
/cpdv currentpagedevice k get def
v cpdv ne {
/upd false def
/nullv v type /nulltype eq def
/nullcpdv cpdv type /nulltype eq def
nullv nullcpdv or
{
/upd true def
} {
/sametype v type cpdv type eq def
sametype {
v type /arraytype eq {
/vlen v length def
/cpdvlen cpdv length def
vlen cpdvlen eq {
0 1 vlen 1 sub {
/i exch def
/obj v i get def
/cpdobj cpdv i get def
obj cpdobj ne {
/upd true def
exit
} if
} for
} {
/upd true def
} ifelse
} {
v type /dicttype eq {
v {
/dv exch def
/dk exch def
/cpddv cpdv dk get def
dv cpddv ne {
/upd true def
exit
} if
} forall
} {
/upd true def
} ifelse
} ifelse
} if
} ifelse
upd true eq {
d k v put
} if
} if
} if
} forall
d length 0 gt {
d setpagedevice
} if
} bd
/RE { % /NewFontName [NewEncodingArray] /FontName RE -
  findfont dup length dict begin
  {
    1 index /FID ne
    {def} {pop pop} ifelse
  } forall
  /Encoding exch def
  /FontName 1 index def
  currentdict definefont pop
  end
} bind def
%%EndResource
%%BeginResource: procset (Apache XML Graphics EPS ProcSet) 1.0 0
%%Version: 1.0 0
%%Copyright: (Copyright 2002-2003 The Apache Software Foundation. License terms: http://www.apache.org/licenses/LICENSE-2.0)
/BeginEPSF { %def
/b4_Inc_state save def         % Save state for cleanup
/dict_count countdictstack def % Count objects on dict stack
/op_count count 1 sub def      % Count objects on operand stack
userdict begin                 % Push userdict on dict stack
/showpage { } def              % Redefine showpage, { } = null proc
0 setgray 0 setlinecap         % Prepare graphics state
1 setlinewidth 0 setlinejoin
10 setmiterlimit [ ] 0 setdash newpath
/languagelevel where           % If level not equal to 1 then
{pop languagelevel             % set strokeadjust and
1 ne                           % overprint to their defaults.
{false setstrokeadjust false setoverprint
} if
} if
} bd
/EndEPSF { %def
count op_count sub {pop} repeat            % Clean up stacks
countdictstack dict_count sub {end} repeat
b4_Inc_state restore
} bd
%%EndResource
%FOPBeginFontDict
%%IncludeResource: font Courier-Oblique
%%IncludeResource: font Courier-BoldOblique
%%IncludeResource: font Courier-Bold
%%IncludeResource: font ZapfDingbats
%%IncludeResource: font Symbol
%%IncludeResource: font Helvetica
%%IncludeResource: font Helvetica-Oblique
%%IncludeResource: font Helvetica-Bold
%%IncludeResource: font Helvetica-BoldOblique
%%IncludeResource: font Times-Roman
%%IncludeResource: font Times-Italic
%%IncludeResource: font Times-Bold
%%IncludeResource: font Times-BoldItalic
%%IncludeResource: font Courier
%FOPEndFontDict
%%BeginResource: encoding WinAnsiEncoding
/WinAnsiEncoding [
/.notdef /.notdef /.notdef /.notdef /.notdef
/.notdef /.notdef /.notdef /.notdef /.notdef
/.notdef /.notdef /.notdef /.notdef /.notdef
/.notdef /.notdef /.notdef /.notdef /.notdef
/.notdef /.notdef /.notdef /.notdef /.notdef
/.notdef /.notdef /.notdef /.notdef /.notdef
/.notdef /.notdef /space /exclam /quotedbl
/numbersign /dollar /percent /ampersand /quotesingle
/parenleft /parenright /asterisk /plus /comma
/hyphen /period /slash /zero /one
/two /three /four /five /six
/seven /eight /nine /colon /semicolon
/less /equal /greater /question /at
/A /B /C /D /E
/F /G /H /I /J
/K /L /M /N /O
/P /Q /R /S /T
/U /V /W /X /Y
/Z /bracketleft /backslash /bracketright /asciicircum
/underscore /quoteleft /a /b /c
/d /e /f /g /h
/i /j /k /l /m
/n /o /p /q /r
/s /t /u /v /w
/x /y /z /braceleft /bar
/braceright /asciitilde /bullet /Euro /bullet
/quotesinglbase /florin /quotedblbase /ellipsis /dagger
/daggerdbl /circumflex /perthousand /Scaron /guilsinglleft
/OE /bullet /Zcaron /bullet /bullet
/quoteleft /quoteright /quotedblleft /quotedblright /bullet
/endash /emdash /asciitilde /trademark /scaron
/guilsinglright /oe /bullet /zcaron /Ydieresis
/space /exclamdown /cent /sterling /currency
/yen /brokenbar /section /dieresis /copyright
/ordfeminine /guillemotleft /logicalnot /sfthyphen /registered
/macron /degree /plusminus /twosuperior /threesuperior
/acute /mu /paragraph /middot /cedilla
/onesuperior /ordmasculine /guillemotright /onequarter /onehalf
/threequarters /questiondown /Agrave /Aacute /Acircumflex
/Atilde /Adieresis /Aring /AE /Ccedilla
/Egrave /Eacute /Ecircumflex /Edieresis /Igrave
/Iacute /Icircumflex /Idieresis /Eth /Ntilde
/Ograve /Oacute /Ocircumflex /Otilde /Odieresis
/multiply /Oslash /Ugrave /Uacute /Ucircumflex
/Udieresis /Yacute /Thorn /germandbls /agrave
/aacute /acircumflex /atilde /adieresis /aring
/ae /ccedilla /egrave /eacute /ecircumflex
/edieresis /igrave /iacute /icircumflex /idieresis
/eth /ntilde /ograve /oacute /ocircumflex
/otilde /odieresis /divide /oslash /ugrave
/uacute /ucircumflex /udieresis /yacute /thorn
/ydieresis
] def
%%EndResource
%FOPBeginFontReencode
/Courier-Oblique findfont
dup length dict begin
  {1 index /FID ne {def} {pop pop} ifelse} forall
  /Encoding WinAnsiEncoding def
  currentdict
end
/Courier-Oblique exch definefont pop
/Courier-BoldOblique findfont
dup length dict begin
  {1 index /FID ne {def} {pop pop} ifelse} forall
  /Encoding WinAnsiEncoding def
  currentdict
end
/Courier-BoldOblique exch definefont pop
/Courier-Bold findfont
dup length dict begin
  {1 index /FID ne {def} {pop pop} ifelse} forall
  /Encoding WinAnsiEncoding def
  currentdict
end
/Courier-Bold exch definefont pop
/Helvetica findfont
dup length dict begin
  {1 index /FID ne {def} {pop pop} ifelse} forall
  /Encoding WinAnsiEncoding def
  currentdict
end
/Helvetica exch definefont pop
/Helvetica-Oblique findfont
dup length dict begin
  {1 index /FID ne {def} {pop pop} ifelse} forall
  /Encoding WinAnsiEncoding def
  currentdict
end
/Helvetica-Oblique exch definefont pop
/Helvetica-Bold findfont
dup length dict begin
  {1 index /FID ne {def} {pop pop} ifelse} forall
  /Encoding WinAnsiEncoding def
  currentdict
end
/Helvetica-Bold exch definefont pop
/Helvetica-BoldOblique findfont
dup length dict begin
  {1 index /FID ne {def} {pop pop} ifelse} forall
  /Encoding WinAnsiEncoding def
  currentdict
end
/Helvetica-BoldOblique exch definefont pop
/Times-Roman findfont
dup length dict begin
  {1 index /FID ne {def} {pop pop} ifelse} forall
  /Encoding WinAnsiEncoding def
  currentdict
end
/Times-Roman exch definefont pop
/Times-Italic findfont
dup length dict begin
  {1 index /FID ne {def} {pop pop} ifelse} forall
  /Encoding WinAnsiEncoding def
  currentdict
end
/Times-Italic exch definefont pop
/Times-Bold findfont
dup length dict begin
  {1 index /FID ne {def} {pop pop} ifelse} forall
  /Encoding WinAnsiEncoding def
  currentdict
end
/Times-Bold exch definefont pop
/Times-BoldItalic findfont
dup length dict begin
  {1 index /FID ne {def} {pop pop} ifelse} forall
  /Encoding WinAnsiEncoding def
  currentdict
end
/Times-BoldItalic exch definefont pop
/Courier findfont
dup length dict begin
  {1 index /FID ne {def} {pop pop} ifelse} forall
  /Encoding WinAnsiEncoding def
  currentdict
end
/Courier exch definefont pop
%FOPEndFontReencode
%%EndSetup
%%Page: 1 1
%%PageBoundingBox: 0 0 595 842
%%BeginPageSetup
<<
/PageSize [595 842]
/ImagingBBox null
>> setpagedevice
[1 0 0 -1 0 842] CT
%%EndPageSetup
GS
[0.5 0 0 0.5 87.63778 263.55511] CT
0.979 GC
N
0 0 840 630 re
f
GR
GS
[0.5 0 0 0.5 87.63778 263.55511] CT
0.979 GC
N
0 0 840 630 re
f
GR
GS
[0.5 0 0 0.5 87.63778 263.55511] CT
0.979 GC
N
109 561 M
760 561 L
760 47 L
109 47 L
cp
f
GR
GS
[0.5 0 0 0.5 87.63778 263.55511] CT
0 GC
2 setlinecap
1 LJ
N
109 561 M
760 561 L
S
GR
GS
[0.5 0 0 0.5 87.63778 263.55511] CT
0 GC
2 setlinecap
1 LJ
N
109 561 M
109 554.49 L
S
GR
GS
[0.5 0 0 0.5 87.63778 263.55511] CT
0 GC
2 setlinecap
1 LJ
N
199.417 561 M
199.417 554.49 L
S
GR
GS
[0.5 0 0 0.5 87.63778 263.55511] CT
0 GC
2 setlinecap
1 LJ
N
289.833 561 M
289.833 554.49 L
S
GR
GS
[0.5 0 0 0.5 87.63778 263.55511] CT
0 GC
2 setlinecap
1 LJ
N
380.25 561 M
380.25 554.49 L
S
GR
GS
[0.5 0 0 0.5 87.63778 263.55511] CT
0 GC
2 setlinecap
1 LJ
N
470.667 561 M
470.667 554.49 L
S
GR
GS
[0.5 0 0 0.5 87.63778 263.55511] CT
0 GC
2 setlinecap
1 LJ
N
561.083 561 M
561.083 554.49 L
S
GR
GS
[0.5 0 0 0.5 87.63778 263.55511] CT
0 GC
2 setlinecap
1 LJ
N
651.5 561 M
651.5 554.49 L
S
GR
GS
[0.5 0 0 0.5 87.63778 263.55511] CT
0 GC
2 setlinecap
1 LJ
N
741.917 561 M
741.917 554.49 L
S
GR
GS
[0.5 0 0 0.5 142.13778 547.85513] CT
0 GC
/Helvetica 18 F
GS
[1 0 0 1 0 0] CT
-5.5 19 moveto 
1 -1 scale
(0) t 
GR
GR
GS
[0.5 0 0 0.5 187.34612 547.85513] CT
0 GC
/Helvetica 18 F
GS
[1 0 0 1 0 0] CT
-10.5 19 moveto 
1 -1 scale
(50) t 
GR
GR
GS
[0.5 0 0 0.5 232.55445 547.85513] CT
0 GC
/Helvetica 18 F
GS
[1 0 0 1 0 0] CT
-15.5 19 moveto 
1 -1 scale
(100) t 
GR
GR
GS
[0.5 0 0 0.5 277.76278 547.85513] CT
0 GC
/Helvetica 18 F
GS
[1 0 0 1 0 0] CT
-15.5 19 moveto 
1 -1 scale
(150) t 
GR
GR
GS
[0.5 0 0 0.5 322.97111 547.85513] CT
0 GC
/Helvetica 18 F
GS
[1 0 0 1 0 0] CT
-15.5 19 moveto 
1 -1 scale
(200) t 
GR
GR
GS
[0.5 0 0 0.5 368.17944 547.85513] CT
0 GC
/Helvetica 18 F
GS
[1 0 0 1 0 0] CT
-15.5 19 moveto 
1 -1 scale
(250) t 
GR
GR
GS
[0.5 0 0 0.5 413.38778 547.85513] CT
0 GC
/Helvetica 18 F
GS
[1 0 0 1 0 0] CT
-15.5 19 moveto 
1 -1 scale
(300) t 
GR
GR
GS
[0.5 0 0 0.5 458.59612 547.85513] CT
0 GC
/Helvetica 18 F
GS
[1 0 0 1 0 0] CT
-15.5 19 moveto 
1 -1 scale
(350) t 
GR
GR
GS
[0.5 0 0 0.5 87.63778 263.55511] CT
0 GC
2 setlinecap
1 LJ
N
109 561 M
109 47 L
S
GR
GS
[0.5 0 0 0.5 87.63778 263.55511] CT
0 GC
2 setlinecap
1 LJ
N
109 561 M
115.51 561 L
S
GR
GS
[0.5 0 0 0.5 87.63778 263.55511] CT
0 GC
2 setlinecap
1 LJ
N
109 509.6 M
115.51 509.6 L
S
GR
GS
[0.5 0 0 0.5 87.63778 263.55511] CT
0 GC
2 setlinecap
1 LJ
N
109 458.2 M
115.51 458.2 L
S
GR
GS
[0.5 0 0 0.5 87.63778 263.55511] CT
0 GC
2 setlinecap
1 LJ
N
109 406.8 M
115.51 406.8 L
S
GR
GS
[0.5 0 0 0.5 87.63778 263.55511] CT
0 GC
2 setlinecap
1 LJ
N
109 355.4 M
115.51 355.4 L
S
GR
GS
[0.5 0 0 0.5 87.63778 263.55511] CT
0 GC
2 setlinecap
1 LJ
N
109 304 M
115.51 304 L
S
GR
GS
[0.5 0 0 0.5 87.63778 263.55511] CT
0 GC
2 setlinecap
1 LJ
N
109 252.6 M
115.51 252.6 L
S
GR
GS
[0.5 0 0 0.5 87.63778 263.55511] CT
0 GC
2 setlinecap
1 LJ
N
109 201.2 M
115.51 201.2 L
S
GR
GS
[0.5 0 0 0.5 87.63778 263.55511] CT
0 GC
2 setlinecap
1 LJ
N
109 149.8 M
115.51 149.8 L
S
GR
GS
[0.5 0 0 0.5 87.63778 263.55511] CT
0 GC
2 setlinecap
1 LJ
N
109 98.4 M
115.51 98.4 L
S
GR
GS
[0.5 0 0 0.5 87.63778 263.55511] CT
0 GC
2 setlinecap
1 LJ
N
109 47 M
115.51 47 L
S
GR
GS
[0.5 0 0 0.5 138.33778 544.05511] CT
0 GC
/Helvetica 18 F
GS
[1 0 0 1 0 0] CT
-17 7.5 moveto 
1 -1 scale
(-1) t 
GR
GR
GS
[0.5 0 0 0.5 138.33778 518.35512] CT
0 GC
/Helvetica 18 F
GS
[1 0 0 1 0 0] CT
-32 7.5 moveto 
1 -1 scale
(-0.8) t 
GR
GR
GS
[0.5 0 0 0.5 138.33778 492.65512] CT
0 GC
/Helvetica 18 F
GS
[1 0 0 1 0 0] CT
-32 7.5 moveto 
1 -1 scale
(-0.6) t 
GR
GR
GS
[0.5 0 0 0.5 138.33778 466.95511] CT
0 GC
/Helvetica 18 F
GS
[1 0 0 1 0 0] CT
-32 7.5 moveto 
1 -1 scale
(-0.4) t 
GR
GR
GS
[0.5 0 0 0.5 138.33778 441.25511] CT
0 GC
/Helvetica 18 F
GS
[1 0 0 1 0 0] CT
-32 7.5 moveto 
1 -1 scale
(-0.2) t 
GR
GR
GS
[0.5 0 0 0.5 138.33778 415.55511] CT
0 GC
/Helvetica 18 F
GS
[1 0 0 1 0 0] CT
-11 7.5 moveto 
1 -1 scale
(0) t 
GR
GR
GS
[0.5 0 0 0.5 138.33778 389.85512] CT
0 GC
/Helvetica 18 F
GS
[1 0 0 1 0 0] CT
-26 7.5 moveto 
1 -1 scale
(0.2) t 
GR
GR
GS
[0.5 0 0 0.5 138.33778 364.15511] CT
0 GC
/Helvetica 18 F
GS
[1 0 0 1 0 0] CT
-26 7.5 moveto 
1 -1 scale
(0.4) t 
GR
GR
GS
[0.5 0 0 0.5 138.33778 338.45511] CT
0 GC
/Helvetica 18 F
GS
[1 0 0 1 0 0] CT
-26 7.5 moveto 
1 -1 scale
(0.6) t 
GR
GR
GS
[0.5 0 0 0.5 138.33778 312.75511] CT
0 GC
/Helvetica 18 F
GS
[1 0 0 1 0 0] CT
-26 7.5 moveto 
1 -1 scale
(0.8) t 
GR
GR
GS
[0.5 0 0 0.5 138.33778 287.05511] CT
0 GC
/Helvetica 18 F
GS
[1 0 0 1 0 0] CT
-11 7.5 moveto 
1 -1 scale
(1) t 
GR
GR
GS
[0.5 0 0 0.5 87.63778 263.55511] CT
0 GC
1 LJ
N
109 561 M
109 47 L
S
GR
GS
[0.5 0 0 0.5 145.39278 518.35512] CT
0 GC
/Helvetica 20 F
GS
[1 0 0 1 0 0] CT
0 8 moveto 
1 -1 scale
(3) t 
GR
GR
GS
[0.5 0 0 0.5 143.04195 394.52785] CT
0 GC
10.0 ML
2 LW
N
6 0 M
6 -3.314 3.314 -6 0 -6 C
-3.314 -6 -6 -3.314 -6 0 C
-6 3.314 -3.314 6 0 6 C
3.314 6 6 3.314 6 0 C
cp
S
GR
GS
[0.5 0 0 0.5 143.04195 331.16641] CT
0 GC
10.0 ML
2 LW
N
6 0 M
6 -3.314 3.314 -6 0 -6 C
-3.314 -6 -6 -3.314 -6 0 C
-6 3.314 -3.314 6 0 6 C
3.314 6 6 3.314 6 0 C
cp
S
GR
GS
[0.5 0 0 0.5 87.63778 263.55511] CT
0.979 GC
N
744 112 M
744 63 L
640 63 L
640 112 L
cp
f
GR
GS
[0.5 0 0 0.5 442.71911 301.83973] CT
0 GC
/Helvetica 16.2 F
GS
[1 0 0 1 0 0] CT
0 6.5 moveto 
1 -1 scale
(corr) t 
GR
GR
GS
[0.5 0 0 0.5 87.63778 263.55511] CT
0 GC
[2 2] 0 setdash
2 LJ
2 LW
N
645.971 76.569 M
705.684 76.569 L
S
GR
GS
[0.5 0 0 0.5 425.55166 301.83973] CT
0 GC
10.0 ML
2 LW
N
6 0 M
6 -3.314 3.314 -6 0 -6 C
-3.314 -6 -6 -3.314 -6 0 C
-6 3.314 -3.314 6 0 6 C
3.314 6 6 3.314 6 0 C
cp
S
GR
GS
[0.5 0 0 0.5 442.71911 312.7705] CT
0 GC
/Helvetica 16.2 F
GS
[1 0 0 1 0 0] CT
0 6.5 moveto 
1 -1 scale
(p) t 
GR
GR
GS
[0.5 0 0 0.5 87.63778 263.55511] CT
0 GC
[2 2] 0 setdash
2 LJ
2 LW
N
645.971 98.431 M
705.684 98.431 L
S
GR
GS
[0.5 0 0 0.5 425.55166 312.7705] CT
0 GC
10.0 ML
2 LW
N
6 0 M
6 -3.314 3.314 -6 0 -6 C
-3.314 -6 -6 -3.314 -6 0 C
-6 3.314 -3.314 6 0 6 C
3.314 6 6 3.314 6 0 C
cp
S
GR
GS
[0.5 0 0 0.5 87.63778 263.55511] CT
0 GC
10.0 ML
N
640 112 M
640 63 L
744 63 L
744 112 L
cp
S
GR
showpage
%%Trailer
%%Pages: 1
%%EOF
